<?xml version="1.0" encoding="UTF-8" standalone="no"?>
<!-- Created with Inkscape (http://www.inkscape.org/) -->
<svg
   xmlns:dc="http://purl.org/dc/elements/1.1/"
   xmlns:cc="http://creativecommons.org/ns#"
   xmlns:rdf="http://www.w3.org/1999/02/22-rdf-syntax-ns#"
   xmlns:svg="http://www.w3.org/2000/svg"
   xmlns="http://www.w3.org/2000/svg"
   xmlns:xlink="http://www.w3.org/1999/xlink"
   xmlns:sodipodi="http://sodipodi.sourceforge.net/DTD/sodipodi-0.dtd"
   xmlns:inkscape="http://www.inkscape.org/namespaces/inkscape"
   width="56"
   height="56"
   id="svg1377"
   sodipodi:version="0.32"
   inkscape:version="0.46"
   sodipodi:docbase="/home/dobey/Projects/gnome-icon-theme/scalable/status"
   sodipodi:docname="error.svg"
   version="1.0"
   inkscape:export-filename="/home/sander/Desktop/error.png"
   inkscape:export-xdpi="205.71428"
   inkscape:export-ydpi="205.71428"
   inkscape:output_extension="org.inkscape.output.svg.inkscape">
  <defs
     id="defs1379">
    <inkscape:perspective
       sodipodi:type="inkscape:persp3d"
       inkscape:vp_x="0 : 24 : 1"
       inkscape:vp_y="0 : 1000 : 0"
       inkscape:vp_z="48 : 24 : 1"
       inkscape:persp3d-origin="24 : 16 : 1"
       id="perspective29" />
    <linearGradient
       inkscape:collect="always"
       id="linearGradient4510">
      <stop
         style="stop-color:white;stop-opacity:1;"
         offset="0"
         id="stop4512" />
      <stop
         style="stop-color:white;stop-opacity:0;"
         offset="1"
         id="stop4514" />
    </linearGradient>
    <linearGradient
       inkscape:collect="always"
       id="linearGradient4493">
      <stop
         style="stop-color:black;stop-opacity:1;"
         offset="0"
         id="stop4495" />
      <stop
         style="stop-color:black;stop-opacity:0;"
         offset="1"
         id="stop4497" />
    </linearGradient>
    <linearGradient
       inkscape:collect="always"
       id="linearGradient4465">
      <stop
         style="stop-color:white;stop-opacity:1;"
         offset="0"
         id="stop4467" />
      <stop
         style="stop-color:white;stop-opacity:0;"
         offset="1"
         id="stop4469" />
    </linearGradient>
    <linearGradient
       id="linearGradient4447">
      <stop
         style="stop-color:#c00;stop-opacity:1;"
         offset="0"
         id="stop4449" />
      <stop
         style="stop-color:#ad0000;stop-opacity:1;"
         offset="1"
         id="stop4451" />
    </linearGradient>
    <linearGradient
       inkscape:collect="always"
       xlink:href="#linearGradient4447"
       id="linearGradient4453"
       x1="16.573217"
       y1="12.237123"
       x2="17.905336"
       y2="41.063381"
       gradientUnits="userSpaceOnUse" />
    <linearGradient
       inkscape:collect="always"
       xlink:href="#linearGradient4465"
       id="linearGradient4471"
       x1="17.499428"
       y1="14.067684"
       x2="15.6875"
       y2="36.616074"
       gradientUnits="userSpaceOnUse" />
    <radialGradient
       inkscape:collect="always"
       xlink:href="#linearGradient4493"
       id="radialGradient4499"
       cx="16"
       cy="27.875"
       fx="16"
       fy="27.875"
       r="12.125"
       gradientTransform="matrix(1,0,0,0.28866,0,19.82861)"
       gradientUnits="userSpaceOnUse" />
    <radialGradient
       inkscape:collect="always"
       xlink:href="#linearGradient4510"
       id="radialGradient4516"
       cx="15.6875"
       cy="10.565164"
       fx="15.6875"
       fy="10.565164"
       r="14.5625"
       gradientTransform="matrix(3.390737,0,0,4.314717,-29.556378,-21.380822)"
       gradientUnits="userSpaceOnUse" />
  </defs>
  <sodipodi:namedview
     id="base"
     pagecolor="#ffffff"
     bordercolor="#666"
     borderopacity="0.30980392"
     inkscape:pageopacity="0.0"
     inkscape:pageshadow="2"
     inkscape:zoom="5.6568542"
     inkscape:cx="20.342184"
     inkscape:cy="27.152657"
     inkscape:current-layer="g7435"
     showgrid="false"
     inkscape:grid-bbox="true"
     inkscape:document-units="px"
     inkscape:window-width="872"
     inkscape:window-height="719"
     inkscape:window-x="398"
     inkscape:window-y="278"
     inkscape:showpageshadow="false"
     width="48px"
     height="48px">
    <inkscape:grid
       id="GridFromPre046Settings"
       type="xygrid"
       originx="0px"
       originy="0px"
       spacingx="1px"
       spacingy="1px"
       color="#0000ff"
       empcolor="#0000ff"
       opacity="0.2"
       empopacity="0.4"
       empspacing="4"
       visible="true"
       enabled="true" />
  </sodipodi:namedview>
  <metadata
     id="metadata1382">
    <rdf:RDF>
      <cc:Work
         rdf:about="">
        <dc:format>image/svg+xml</dc:format>
        <dc:type
           rdf:resource="http://purl.org/dc/dcmitype/StillImage" />
        <dc:title>Warning</dc:title>
        <dc:date />
        <dc:creator>
          <cc:Agent>
            <dc:title>Jakub Steiner</dc:title>
          </cc:Agent>
        </dc:creator>
        <dc:contributor>
          <cc:Agent>
            <dc:title />
          </cc:Agent>
        </dc:contributor>
        <dc:subject>
          <rdf:Bag>
            <rdf:li>dialog</rdf:li>
            <rdf:li>warning</rdf:li>
            <rdf:li>caution</rdf:li>
          </rdf:Bag>
        </dc:subject>
        <cc:license
           rdf:resource="http://creativecommons.org/licenses/GPL/2.0/" />
      </cc:Work>
      <cc:License
         rdf:about="http://creativecommons.org/licenses/GPL/2.0/">
        <cc:permits
           rdf:resource="http://web.resource.org/cc/Reproduction" />
        <cc:permits
           rdf:resource="http://web.resource.org/cc/Distribution" />
        <cc:requires
           rdf:resource="http://web.resource.org/cc/Notice" />
        <cc:permits
           rdf:resource="http://web.resource.org/cc/DerivativeWorks" />
        <cc:requires
           rdf:resource="http://web.resource.org/cc/ShareAlike" />
        <cc:requires
           rdf:resource="http://web.resource.org/cc/SourceCode" />
      </cc:License>
    </rdf:RDF>
  </metadata>
  <g
     id="layer1"
     inkscape:label="Layer 1"
     inkscape:groupmode="layer">
    <g
       transform="matrix(1.566667,0,0,1.566667,-8.925566,-23.94764)"
       id="g7435">
      <path
         sodipodi:type="arc"
         style="opacity:1;fill:url(#radialGradient4499);fill-opacity:1;fill-rule:nonzero;stroke:none;stroke-width:1;stroke-linecap:butt;stroke-linejoin:miter;marker:none;marker-start:none;marker-mid:none;marker-end:none;stroke-miterlimit:4;stroke-dasharray:none;stroke-dashoffset:0;stroke-opacity:1;visibility:visible;display:inline;overflow:visible"
         id="path4491"
         sodipodi:cx="16"
         sodipodi:cy="27.875"
         sodipodi:rx="12.125"
         sodipodi:ry="3.5"
         d="M 28.125,27.875 A 12.125,3.5 0 1 1 3.875,27.875 A 12.125,3.5 0 1 1 28.125,27.875 z"
         transform="matrix(1.048831,0,0,1.266216,6.7961838,8.165832)" />
      <path
         sodipodi:type="arc"
         style="opacity:1;fill:url(#linearGradient4453);fill-opacity:1;fill-rule:nonzero;stroke:#a40000;stroke-width:0.68400139;stroke-linecap:butt;stroke-linejoin:miter;marker:none;marker-start:none;marker-mid:none;marker-end:none;stroke-miterlimit:4;stroke-dasharray:none;stroke-dashoffset:0;stroke-opacity:1;visibility:visible;display:inline;overflow:visible"
         id="path4445"
         sodipodi:cx="15.6875"
         sodipodi:cy="15.8125"
         sodipodi:rx="14.5625"
         sodipodi:ry="14.5625"
         d="M 30.25,15.8125 A 14.5625,14.5625 0 1 1 1.125,15.8125 A 14.5625,14.5625 0 1 1 30.25,15.8125 z"
         transform="matrix(0.933363,0,0,0.933002,8.9936768,18.037308)" />
      <path
         transform="matrix(0.888101,0,0,0.887757,9.7037208,18.752738)"
         d="M 30.25,15.8125 A 14.5625,14.5625 0 1 1 1.125,15.8125 A 14.5625,14.5625 0 1 1 30.25,15.8125 z"
         sodipodi:ry="14.5625"
         sodipodi:rx="14.5625"
         sodipodi:cy="15.8125"
         sodipodi:cx="15.6875"
         id="path4455"
         style="opacity:0.29896904;fill:none;fill-opacity:1;fill-rule:nonzero;stroke:url(#linearGradient4471);stroke-width:0.71886134;stroke-linecap:butt;stroke-linejoin:miter;marker:none;marker-start:none;marker-mid:none;marker-end:none;stroke-miterlimit:4;stroke-dasharray:none;stroke-dashoffset:0;stroke-opacity:1;visibility:visible;display:inline;overflow:visible"
         sodipodi:type="arc" />
      <rect
         style="opacity:1;fill:#ffffff;fill-opacity:1;fill-rule:nonzero;stroke:none;stroke-width:1;stroke-linecap:butt;stroke-linejoin:miter;marker:none;marker-start:none;marker-mid:none;marker-end:none;stroke-miterlimit:4;stroke-dasharray:none;stroke-dashoffset:0;stroke-opacity:1;visibility:visible;display:inline;overflow:visible"
         id="rect4481"
         width="16.827641"
         height="2.5002885"
         x="15.081777"
         y="31.398046" />
      <path
         style="opacity:0.17525772;fill:url(#radialGradient4516);fill-opacity:1;fill-rule:nonzero;stroke:none;stroke-width:1;stroke-linecap:butt;stroke-linejoin:miter;marker:none;marker-start:none;marker-mid:none;marker-end:none;stroke-miterlimit:4;stroke-dasharray:none;stroke-dashoffset:0;stroke-opacity:1;visibility:visible;display:inline;overflow:visible"
         d="M 23.635807,19.674996 C 16.497279,19.674996 10.703697,25.466336 10.703697,32.602103 C 10.703697,33.484596 10.784651,34.349016 10.953459,35.181976 C 10.955272,35.190919 10.951628,35.200779 10.953459,35.209715 C 22.246991,35.581117 28.478378,38.953303 36.401408,34.710386 C 36.513906,34.024972 36.567916,33.31918 36.567916,32.602103 C 36.567916,25.466337 30.774335,19.674996 23.635807,19.674996 z"
         id="path4501"
         sodipodi:nodetypes="cssccsc" />
    </g>
  </g>
</svg>
